일자,신규 유저수,누적 유저수,신규 구독 유저수,신규 개별구매 유저수,재결제 구독 유저수,재결제 개별구매 유저수,DAU
1,118,40509,3,0,3,0,899
2,141,40651,0,0,10,0,1001
3,140,40792,1,2,7,0,1055
4,143,40936,2,2,6,0,1042
5,140,41077,2,2,18,0,1076
6,139,41217,5,1,9,0,1042
7,116,41334,4,2,7,1,844
8,123,41458,0,2,8,1,931
9,150,41609,2,2,13,0,1208
10,151,41761,4,3,11,0,1199
11,184,41946,2,3,13,1,1220
12,200,42147,1,1,5,0,1277
13,161,42309,0,0,8,0,1069
14,128,42438,1,2,17,0,880
15,154,42593,0,3,10,2,1005
16,161,42755,6,6,8,0,1176
17,169,42925,1,0,6,0,1211
18,177,43103,2,2,6,1,1248
19,189,43293,3,3,10,0,1312
20,165,43460,3,5,15,0,1110
21,151,43612,2,4,5,1,951
22,176,43789,6,3,10,1,1098
23,197,43987,4,1,5,1,1354
24,201,44189,5,2,11,0,1375
25,173,44363,8,1,7,0,1344
26,233,44597,13,1,14,0,1463
27,200,44798,11,0,5,0,1221
28,144,44943,14,0,18,0,956
29,155,45099,14,0,12,0,1131
30,183,45284,18,1,15,0,1323