일자,신규 유저수,누적 유저수,신규 구독 유저수,신규 개별구매 유저수,재결제 구독 유저수,재결제 개별구매 유저수,DAU
1,26,14644,1,0,1,0,251
2,49,14694,2,0,1,1,322
3,42,14737,0,0,9,0,301
4,35,14773,2,0,8,0,297
5,35,14809,3,1,7,0,276
6,44,14854,2,0,6,0,355
7,43,14898,1,0,6,2,335
8,41,14940,2,0,6,0,320
9,32,14973,0,0,3,0,311
10,55,15029,0,0,6,0,323
11,25,15055,0,0,5,2,230
12,42,15098,1,0,6,0,275
13,58,15157,1,0,3,1,362
14,51,15209,4,1,5,0,341
15,42,15252,3,0,2,1,363
16,42,15295,2,0,0,0,346
17,53,15349,1,1,2,0,380
18,40,15390,0,0,4,1,291
19,41,15433,2,1,6,0,287
20,47,15481,1,0,2,2,314
21,40,15522,0,0,3,0,312
22,33,15556,0,0,3,1,322
23,35,15592,1,0,0,0,259
24,22,15616,1,0,5,0,198
25,23,15640,0,0,3,0,174
26,22,15663,0,0,2,0,185
27,41,15705,1,0,3,1,253
28,34,15740,2,0,4,0,328
29,45,15786,0,0,8,0,368
30,62,15849,0,0,5,0,384
31,49,15899,0,0,3,0,367