일자,신규 유저수,누적 유저수,신규 구독 유저수,신규 개별구매 유저수,재결제 구독 유저수,재결제 개별구매 유저수,DAU
1,106,34763,2,0,2,0,843
2,90,34854,1,0,5,0,846
3,105,34960,3,1,7,0,783
4,83,35044,2,1,10,0,744
5,79,35124,4,0,17,0,620
6,67,35192,1,0,4,0,631
7,94,35287,5,1,9,0,821
8,88,35376,1,0,5,1,817
9,77,35454,2,1,10,0,804
10,90,35545,2,0,11,0,832
11,98,35644,2,0,6,0,810
12,67,35712,1,0,4,0,616
13,53,35766,1,0,15,0,616
14,90,35857,3,0,17,0,821
15,105,35963,4,1,8,1,806
16,111,36075,2,0,2,0,923
17,94,36170,3,0,7,0,788
18,94,36265,2,0,11,0,779
19,70,36336,4,0,10,0,585
20,77,36414,1,2,9,0,645
21,76,36491,2,0,7,0,755
22,97,36589,4,0,6,0,757
23,110,36700,1,0,6,0,799
24,93,36794,2,1,9,0,841
25,87,36882,1,1,11,0,715
26,70,36953,2,1,8,0,590
27,75,37029,6,0,9,0,660
28,96,37126,4,0,13,0,780
29,81,37208,1,0,7,1,751
30,46,37255,3,1,12,1,488